{
  "schemaVersion": 1,
  "id": "mccustomisation",
  "version": "${version}",
  "name": "McCustomisation",
  "description": "Random customisations for Minecraft, hopefully not breaking mod compatibility",
  "authors": [
    "TheArcaneBrony"
  ],
  "contact": {},
  "license": "MIT",
  "icon": "assets/mccustomisation/icon.png",
  "environment": "*",
  "entrypoints": {
    "client": [
      "net.thearcanebrony.mccustomisation.client.MccustomisationClient"
    ],
    "main": [
      "net.thearcanebrony.mccustomisation.Mccustomisation"
    ]
  },
  "mixins": [
    "mccustomisation.mixins.json"
  ],
  "depends": {
    "fabricloader": ">=0.12.5",
    "fabric": "*",
    "minecraft": "1.17.1"
  }
}
